^C:\USERS\USER\DESKTOP\MAGSHIMIM\YEAR2\CPP\10\OFEKHW10-THEVIRUS\OFEKHW10-THEVIRUS\DEBUG\MAIN.OBJ
C:\USERS\USER\DESKTOP\MAGSHIMIM\YEAR2\CPP\10\OFEKHW10-THEVIRUS\DEBUG\OFEKHW10-THEVIRUS.ILK
C:\USERS\USER\DESKTOP\MAGSHIMIM\YEAR2\CPP\10\OFEKHW10-THEVIRUS\DEBUG\OFEKHW10-THEVIRUS.EXE
C:\USERS\USER\DESKTOP\MAGSHIMIM\YEAR2\CPP\10\OFEKHW10-THEVIRUS\DEBUG\OFEKHW10-THEVIRUS.PDB
^C:\USERS\USER\DESKTOP\MAGSHIMIM\YEAR2\ASSEMBLY\10\OFEKHW10-THEVIRUS\OFEKHW10-THEVIRUS\DEBUG\MAIN.OBJ|C:\USERS\USER\DESKTOP\MAGSHIMIM\YEAR2\ASSEMBLY\10\OFEKHW10-THEVIRUS\OFEKHW10-THEVIRUS\DEBUG\OFEKHW10-THEVIRUS.RES
C:\USERS\USER\DESKTOP\MAGSHIMIM\YEAR2\ASSEMBLY\10\OFEKHW10-THEVIRUS\DEBUG\OFEKHW10-THEVIRUS.EXE
C:\USERS\USER\DESKTOP\MAGSHIMIM\YEAR2\ASSEMBLY\10\OFEKHW10-THEVIRUS\DEBUG\OFEKHW10-THEVIRUS.ILK
C:\USERS\USER\DESKTOP\MAGSHIMIM\YEAR2\ASSEMBLY\10\OFEKHW10-THEVIRUS\DEBUG\OFEKHW10-THEVIRUS.PDB
